{
  "name": "Art Gallery of Ontario",
  "link": "https://ago.ca/",
  "description": "The classic big city modern art museum, but not to be overlooked!",
  "address": "317 Dundas Street West Toronto, Ontario M5T 1G4"
}